{
  "page": 1,
  "per_page": 15,
  "photos": [
    {
      "id": 145939,
      "width": 3230,
      "height": 2216,
      "url": "https://www.pexels.com/photo/bengal-tiger-half-soak-body-on-water-during-daytime-145939/",
      "photographer": "Flickr",
      "photographer_url": "https://www.pexels.com/@flickr",
      "photographer_id": 42313,
      "avg_color": "#708063",
      "src": {
        "original": "https://images.pexels.com/photos/145939/pexels-photo-145939.jpeg",
        "large2x": "https://images.pexels.com/photos/145939/pexels-photo-145939.jpeg?auto=compress&cs=tinysrgb&dpr=2&h=650&w=940",
        "large": "https://images.pexels.com/photos/145939/pexels-photo-145939.jpeg?auto=compress&cs=tinysrgb&h=650&w=940",
        "medium": "https://images.pexels.com/photos/145939/pexels-photo-145939.jpeg?auto=compress&cs=tinysrgb&h=350",
        "small": "https://images.pexels.com/photos/145939/pexels-photo-145939.jpeg?auto=compress&cs=tinysrgb&h=130",
        "portrait": "https://images.pexels.com/photos/145939/pexels-photo-145939.jpeg?auto=compress&cs=tinysrgb&fit=crop&h=1200&w=800",
        "landscape": "https://images.pexels.com/photos/145939/pexels-photo-145939.jpeg?auto=compress&cs=tinysrgb&fit=crop&h=627&w=1200",
        "tiny": "https://images.pexels.com/photos/145939/pexels-photo-145939.jpeg?auto=compress&cs=tinysrgb&dpr=1&fit=crop&h=200&w=280"
      },
      "liked": false
    },
    {
      "id": 45201,
      "width": 2392,
      "height": 2500,
      "url": "https://www.pexels.com/photo/white-and-grey-kitten-on-brown-and-black-leopard-print-textile-45201/",
      "photographer": "Pixabay",
      "photographer_url": "https://www.pexels.com/@pixabay",
      "photographer_id": 2659,
      "avg_color": "#4E4340",
      "src": {
        "original": "https://images.pexels.com/photos/45201/kitty-cat-kitten-pet-45201.jpeg",
        "large2x": "https://images.pexels.com/photos/45201/kitty-cat-kitten-pet-45201.jpeg?auto=compress&cs=tinysrgb&dpr=2&h=650&w=940",
        "large": "https://images.pexels.com/photos/45201/kitty-cat-kitten-pet-45201.jpeg?auto=compress&cs=tinysrgb&h=650&w=940",
        "medium": "https://images.pexels.com/photos/45201/kitty-cat-kitten-pet-45201.jpeg?auto=compress&cs=tinysrgb&h=350",
        "small": "https://images.pexels.com/photos/45201/kitty-cat-kitten-pet-45201.jpeg?auto=compress&cs=tinysrgb&h=130",
        "portrait": "https://images.pexels.com/photos/45201/kitty-cat-kitten-pet-45201.jpeg?auto=compress&cs=tinysrgb&fit=crop&h=1200&w=800",
        "landscape": "https://images.pexels.com/photos/45201/kitty-cat-kitten-pet-45201.jpeg?auto=compress&cs=tinysrgb&fit=crop&h=627&w=1200",
        "tiny": "https://images.pexels.com/photos/45201/kitty-cat-kitten-pet-45201.jpeg?auto=compress&cs=tinysrgb&dpr=1&fit=crop&h=200&w=280"
      },
      "liked": false
    },
    {
      "id": 40984,
      "width": 2634,
      "height": 3951,
      "url": "https://www.pexels.com/photo/bird-red-animal-colorful-40984/",
      "photographer": "Public Domain Pictures",
      "photographer_url": "https://www.pexels.com/@public-domain-pictures",
      "photographer_id": 3720,
      "avg_color": "#CFBBB8",
      "src": {
        "original": "https://images.pexels.com/photos/40984/animal-ara-macao-beak-bird-40984.jpeg",
        "large2x": "https://images.pexels.com/photos/40984/animal-ara-macao-beak-bird-40984.jpeg?auto=compress&cs=tinysrgb&dpr=2&h=650&w=940",
        "large": "https://images.pexels.com/photos/40984/animal-ara-macao-beak-bird-40984.jpeg?auto=compress&cs=tinysrgb&h=650&w=940",
        "medium": "https://images.pexels.com/photos/40984/animal-ara-macao-beak-bird-40984.jpeg?auto=compress&cs=tinysrgb&h=350",
        "small": "https://images.pexels.com/photos/40984/animal-ara-macao-beak-bird-40984.jpeg?auto=compress&cs=tinysrgb&h=130",
        "portrait": "https://images.pexels.com/photos/40984/animal-ara-macao-beak-bird-40984.jpeg?auto=compress&cs=tinysrgb&fit=crop&h=1200&w=800",
        "landscape": "https://images.pexels.com/photos/40984/animal-ara-macao-beak-bird-40984.jpeg?auto=compress&cs=tinysrgb&fit=crop&h=627&w=1200",
        "tiny": "https://images.pexels.com/photos/40984/animal-ara-macao-beak-bird-40984.jpeg?auto=compress&cs=tinysrgb&dpr=1&fit=crop&h=200&w=280"
      },
      "liked": false
    },
    {
      "id": 247502,
      "width": 1920,
      "height": 1491,
      "url": "https://www.pexels.com/photo/close-up-portrait-of-lion-247502/",
      "photographer": "Pixabay",
      "photographer_url": "https://www.pexels.com/@pixabay",
      "photographer_id": 2659,
      "avg_color": "#726035",
      "src": {
        "original": "https://images.pexels.com/photos/247502/pexels-photo-247502.jpeg",
        "large2x": "https://images.pexels.com/photos/247502/pexels-photo-247502.jpeg?auto=compress&cs=tinysrgb&dpr=2&h=650&w=940",
        "large": "https://images.pexels.com/photos/247502/pexels-photo-247502.jpeg?auto=compress&cs=tinysrgb&h=650&w=940",
        "medium": "https://images.pexels.com/photos/247502/pexels-photo-247502.jpeg?auto=compress&cs=tinysrgb&h=350",
        "small": "https://images.pexels.com/photos/247502/pexels-photo-247502.jpeg?auto=compress&cs=tinysrgb&h=130",
        "portrait": "https://images.pexels.com/photos/247502/pexels-photo-247502.jpeg?auto=compress&cs=tinysrgb&fit=crop&h=1200&w=800",
        "landscape": "https://images.pexels.com/photos/247502/pexels-photo-247502.jpeg?auto=compress&cs=tinysrgb&fit=crop&h=627&w=1200",
        "tiny": "https://images.pexels.com/photos/247502/pexels-photo-247502.jpeg?auto=compress&cs=tinysrgb&dpr=1&fit=crop&h=200&w=280"
      },
      "liked": false
    },
    {
      "id": 47547,
      "width": 2939,
      "height": 2583,
      "url": "https://www.pexels.com/photo/brown-squirrel-47547/",
      "photographer": "Pixabay",
      "photographer_url": "https://www.pexels.com/@pixabay",
      "photographer_id": 2659,
      "avg_color": "#727345",
      "src": {
        "original": "https://images.pexels.com/photos/47547/squirrel-animal-cute-rodents-47547.jpeg",
        "large2x": "https://images.pexels.com/photos/47547/squirrel-animal-cute-rodents-47547.jpeg?auto=compress&cs=tinysrgb&dpr=2&h=650&w=940",
        "large": "https://images.pexels.com/photos/47547/squirrel-animal-cute-rodents-47547.jpeg?auto=compress&cs=tinysrgb&h=650&w=940",
        "medium": "https://images.pexels.com/photos/47547/squirrel-animal-cute-rodents-47547.jpeg?auto=compress&cs=tinysrgb&h=350",
        "small": "https://images.pexels.com/photos/47547/squirrel-animal-cute-rodents-47547.jpeg?auto=compress&cs=tinysrgb&h=130",
        "portrait": "https://images.pexels.com/photos/47547/squirrel-animal-cute-rodents-47547.jpeg?auto=compress&cs=tinysrgb&fit=crop&h=1200&w=800",
        "landscape": "https://images.pexels.com/photos/47547/squirrel-animal-cute-rodents-47547.jpeg?auto=compress&cs=tinysrgb&fit=crop&h=627&w=1200",
        "tiny": "https://images.pexels.com/photos/47547/squirrel-animal-cute-rodents-47547.jpeg?auto=compress&cs=tinysrgb&dpr=1&fit=crop&h=200&w=280"
      },
      "liked": false
    },
    {
      "id": 87403,
      "width": 1989,
      "height": 2984,
      "url": "https://www.pexels.com/photo/brown-and-black-leopard-animal-87403/",
      "photographer": "Public Domain Pictures",
      "photographer_url": "https://www.pexels.com/@public-domain-pictures",
      "photographer_id": 3720,
      "avg_color": "#A08F78",
      "src": {
        "original": "https://images.pexels.com/photos/87403/cheetah-leopard-animal-big-87403.jpeg",
        "large2x": "https://images.pexels.com/photos/87403/cheetah-leopard-animal-big-87403.jpeg?auto=compress&cs=tinysrgb&dpr=2&h=650&w=940",
        "large": "https://images.pexels.com/photos/87403/cheetah-leopard-animal-big-87403.jpeg?auto=compress&cs=tinysrgb&h=650&w=940",
        "medium": "https://images.pexels.com/photos/87403/cheetah-leopard-animal-big-87403.jpeg?auto=compress&cs=tinysrgb&h=350",
        "small": "https://images.pexels.com/photos/87403/cheetah-leopard-animal-big-87403.jpeg?auto=compress&cs=tinysrgb&h=130",
        "portrait": "https://images.pexels.com/photos/87403/cheetah-leopard-animal-big-87403.jpeg?auto=compress&cs=tinysrgb&fit=crop&h=1200&w=800",
        "landscape": "https://images.pexels.com/photos/87403/cheetah-leopard-animal-big-87403.jpeg?auto=compress&cs=tinysrgb&fit=crop&h=627&w=1200",
        "tiny": "https://images.pexels.com/photos/87403/cheetah-leopard-animal-big-87403.jpeg?auto=compress&cs=tinysrgb&dpr=1&fit=crop&h=200&w=280"
      },
      "liked": false
    },
    {
      "id": 1661179,
      "width": 2250,
      "height": 2625,
      "url": "https://www.pexels.com/photo/green-bird-1661179/",
      "photographer": "Roshan Kamath",
      "photographer_url": "https://www.pexels.com/@roshan-kamath-793618",
      "photographer_id": 793618,
      "avg_color": "#667F4D",
      "src": {
        "original": "https://images.pexels.com/photos/1661179/pexels-photo-1661179.jpeg",
        "large2x": "https://images.pexels.com/photos/1661179/pexels-photo-1661179.jpeg?auto=compress&cs=tinysrgb&dpr=2&h=650&w=940",
        "large": "https://images.pexels.com/photos/1661179/pexels-photo-1661179.jpeg?auto=compress&cs=tinysrgb&h=650&w=940",
        "medium": "https://images.pexels.com/photos/1661179/pexels-photo-1661179.jpeg?auto=compress&cs=tinysrgb&h=350",
        "small": "https://images.pexels.com/photos/1661179/pexels-photo-1661179.jpeg?auto=compress&cs=tinysrgb&h=130",
        "portrait": "https://images.pexels.com/photos/1661179/pexels-photo-1661179.jpeg?auto=compress&cs=tinysrgb&fit=crop&h=1200&w=800",
        "landscape": "https://images.pexels.com/photos/1661179/pexels-photo-1661179.jpeg?auto=compress&cs=tinysrgb&fit=crop&h=627&w=1200",
        "tiny": "https://images.pexels.com/photos/1661179/pexels-photo-1661179.jpeg?auto=compress&cs=tinysrgb&dpr=1&fit=crop&h=200&w=280"
      },
      "liked": false
    },
    {
      "id": 792381,
      "width": 3047,
      "height": 2362,
      "url": "https://www.pexels.com/photo/close-up-photography-of-tiger-792381/",
      "photographer": "GEORGE DESIPRIS",
      "photographer_url": "https://www.pexels.com/@george-desipris",
      "photographer_id": 228078,
      "avg_color": "#33271B",
      "src": {
        "original": "https://images.pexels.com/photos/792381/pexels-photo-792381.jpeg",
        "large2x": "https://images.pexels.com/photos/792381/pexels-photo-792381.jpeg?auto=compress&cs=tinysrgb&dpr=2&h=650&w=940",
        "large": "https://images.pexels.com/photos/792381/pexels-photo-792381.jpeg?auto=compress&cs=tinysrgb&h=650&w=940",
        "medium": "https://images.pexels.com/photos/792381/pexels-photo-792381.jpeg?auto=compress&cs=tinysrgb&h=350",
        "small": "https://images.pexels.com/photos/792381/pexels-photo-792381.jpeg?auto=compress&cs=tinysrgb&h=130",
        "portrait": "https://images.pexels.com/photos/792381/pexels-photo-792381.jpeg?auto=compress&cs=tinysrgb&fit=crop&h=1200&w=800",
        "landscape": "https://images.pexels.com/photos/792381/pexels-photo-792381.jpeg?auto=compress&cs=tinysrgb&fit=crop&h=627&w=1200",
        "tiny": "https://images.pexels.com/photos/792381/pexels-photo-792381.jpeg?auto=compress&cs=tinysrgb&dpr=1&fit=crop&h=200&w=280"
      },
      "liked": false
    },
    {
      "id": 34231,
      "width": 2359,
      "height": 1887,
      "url": "https://www.pexels.com/photo/nature-animal-grass-meadow-34231/",
      "photographer": "Pixabay",
      "photographer_url": "https://www.pexels.com/@pixabay",
      "photographer_id": 2659,
      "avg_color": "#8F912C",
      "src": {
        "original": "https://images.pexels.com/photos/34231/antler-antler-carrier-fallow-deer-hirsch.jpg",
        "large2x": "https://images.pexels.com/photos/34231/antler-antler-carrier-fallow-deer-hirsch.jpg?auto=compress&cs=tinysrgb&dpr=2&h=650&w=940",
        "large": "https://images.pexels.com/photos/34231/antler-antler-carrier-fallow-deer-hirsch.jpg?auto=compress&cs=tinysrgb&h=650&w=940",
        "medium": "https://images.pexels.com/photos/34231/antler-antler-carrier-fallow-deer-hirsch.jpg?auto=compress&cs=tinysrgb&h=350",
        "small": "https://images.pexels.com/photos/34231/antler-antler-carrier-fallow-deer-hirsch.jpg?auto=compress&cs=tinysrgb&h=130",
        "portrait": "https://images.pexels.com/photos/34231/antler-antler-carrier-fallow-deer-hirsch.jpg?auto=compress&cs=tinysrgb&fit=crop&h=1200&w=800",
        "landscape": "https://images.pexels.com/photos/34231/antler-antler-carrier-fallow-deer-hirsch.jpg?auto=compress&cs=tinysrgb&fit=crop&h=627&w=1200",
        "tiny": "https://images.pexels.com/photos/34231/antler-antler-carrier-fallow-deer-hirsch.jpg?auto=compress&cs=tinysrgb&dpr=1&fit=crop&h=200&w=280"
      },
      "liked": false
    },
    {
      "id": 62289,
      "width": 2848,
      "height": 4288,
      "url": "https://www.pexels.com/photo/animal-green-reptile-female-62289/",
      "photographer": "Pixabay",
      "photographer_url": "https://www.pexels.com/@pixabay",
      "photographer_id": 2659,
      "avg_color": "#908F72",
      "src": {
        "original": "https://images.pexels.com/photos/62289/yemen-chameleon-chamaeleo-calyptratus-chameleon-reptile-62289.jpeg",
        "large2x": "https://images.pexels.com/photos/62289/yemen-chameleon-chamaeleo-calyptratus-chameleon-reptile-62289.jpeg?auto=compress&cs=tinysrgb&dpr=2&h=650&w=940",
        "large": "https://images.pexels.com/photos/62289/yemen-chameleon-chamaeleo-calyptratus-chameleon-reptile-62289.jpeg?auto=compress&cs=tinysrgb&h=650&w=940",
        "medium": "https://images.pexels.com/photos/62289/yemen-chameleon-chamaeleo-calyptratus-chameleon-reptile-62289.jpeg?auto=compress&cs=tinysrgb&h=350",
        "small": "https://images.pexels.com/photos/62289/yemen-chameleon-chamaeleo-calyptratus-chameleon-reptile-62289.jpeg?auto=compress&cs=tinysrgb&h=130",
        "portrait": "https://images.pexels.com/photos/62289/yemen-chameleon-chamaeleo-calyptratus-chameleon-reptile-62289.jpeg?auto=compress&cs=tinysrgb&fit=crop&h=1200&w=800",
        "landscape": "https://images.pexels.com/photos/62289/yemen-chameleon-chamaeleo-calyptratus-chameleon-reptile-62289.jpeg?auto=compress&cs=tinysrgb&fit=crop&h=627&w=1200",
        "tiny": "https://images.pexels.com/photos/62289/yemen-chameleon-chamaeleo-calyptratus-chameleon-reptile-62289.jpeg?auto=compress&cs=tinysrgb&dpr=1&fit=crop&h=200&w=280"
      },
      "liked": false
    },
    {
      "id": 325045,
      "width": 2472,
      "height": 3709,
      "url": "https://www.pexels.com/photo/close-up-of-a-siamese-fighting-fish-325045/",
      "photographer": "Chevanon Photography",
      "photographer_url": "https://www.pexels.com/@chevanon",
      "photographer_id": 93955,
      "avg_color": "#EEE7F1",
      "src": {
        "original": "https://images.pexels.com/photos/325045/pexels-photo-325045.jpeg",
        "large2x": "https://images.pexels.com/photos/325045/pexels-photo-325045.jpeg?auto=compress&cs=tinysrgb&dpr=2&h=650&w=940",
        "large": "https://images.pexels.com/photos/325045/pexels-photo-325045.jpeg?auto=compress&cs=tinysrgb&h=650&w=940",
        "medium": "https://images.pexels.com/photos/325045/pexels-photo-325045.jpeg?auto=compress&cs=tinysrgb&h=350",
        "small": "https://images.pexels.com/photos/325045/pexels-photo-325045.jpeg?auto=compress&cs=tinysrgb&h=130",
        "portrait": "https://images.pexels.com/photos/325045/pexels-photo-325045.jpeg?auto=compress&cs=tinysrgb&fit=crop&h=1200&w=800",
        "landscape": "https://images.pexels.com/photos/325045/pexels-photo-325045.jpeg?auto=compress&cs=tinysrgb&fit=crop&h=627&w=1200",
        "tiny": "https://images.pexels.com/photos/325045/pexels-photo-325045.jpeg?auto=compress&cs=tinysrgb&dpr=1&fit=crop&h=200&w=280"
      },
      "liked": false
    },
    {
      "id": 162140,
      "width": 4275,
      "height": 2539,
      "url": "https://www.pexels.com/photo/duckling-on-black-soil-during-daytime-162140/",
      "photographer": "Pixabay",
      "photographer_url": "https://www.pexels.com/@pixabay",
      "photographer_id": 2659,
      "avg_color": "#756246",
      "src": {
        "original": "https://images.pexels.com/photos/162140/duckling-birds-yellow-fluffy-162140.jpeg",
        "large2x": "https://images.pexels.com/photos/162140/duckling-birds-yellow-fluffy-162140.jpeg?auto=compress&cs=tinysrgb&dpr=2&h=650&w=940",
        "large": "https://images.pexels.com/photos/162140/duckling-birds-yellow-fluffy-162140.jpeg?auto=compress&cs=tinysrgb&h=650&w=940",
        "medium": "https://images.pexels.com/photos/162140/duckling-birds-yellow-fluffy-162140.jpeg?auto=compress&cs=tinysrgb&h=350",
        "small": "https://images.pexels.com/photos/162140/duckling-birds-yellow-fluffy-162140.jpeg?auto=compress&cs=tinysrgb&h=130",
        "portrait": "https://images.pexels.com/photos/162140/duckling-birds-yellow-fluffy-162140.jpeg?auto=compress&cs=tinysrgb&fit=crop&h=1200&w=800",
        "landscape": "https://images.pexels.com/photos/162140/duckling-birds-yellow-fluffy-162140.jpeg?auto=compress&cs=tinysrgb&fit=crop&h=627&w=1200",
        "tiny": "https://images.pexels.com/photos/162140/duckling-birds-yellow-fluffy-162140.jpeg?auto=compress&cs=tinysrgb&dpr=1&fit=crop&h=200&w=280"
      },
      "liked": false
    },
    {
      "id": 67552,
      "width": 2848,
      "height": 4272,
      "url": "https://www.pexels.com/photo/brown-giraffe-walking-on-brown-grass-67552/",
      "photographer": "Pixabay",
      "photographer_url": "https://www.pexels.com/@pixabay",
      "photographer_id": 2659,
      "avg_color": "#AFA394",
      "src": {
        "original": "https://images.pexels.com/photos/67552/giraffe-tall-mammal-africa-67552.jpeg",
        "large2x": "https://images.pexels.com/photos/67552/giraffe-tall-mammal-africa-67552.jpeg?auto=compress&cs=tinysrgb&dpr=2&h=650&w=940",
        "large": "https://images.pexels.com/photos/67552/giraffe-tall-mammal-africa-67552.jpeg?auto=compress&cs=tinysrgb&h=650&w=940",
        "medium": "https://images.pexels.com/photos/67552/giraffe-tall-mammal-africa-67552.jpeg?auto=compress&cs=tinysrgb&h=350",
        "small": "https://images.pexels.com/photos/67552/giraffe-tall-mammal-africa-67552.jpeg?auto=compress&cs=tinysrgb&h=130",
        "portrait": "https://images.pexels.com/photos/67552/giraffe-tall-mammal-africa-67552.jpeg?auto=compress&cs=tinysrgb&fit=crop&h=1200&w=800",
        "landscape": "https://images.pexels.com/photos/67552/giraffe-tall-mammal-africa-67552.jpeg?auto=compress&cs=tinysrgb&fit=crop&h=627&w=1200",
        "tiny": "https://images.pexels.com/photos/67552/giraffe-tall-mammal-africa-67552.jpeg?auto=compress&cs=tinysrgb&dpr=1&fit=crop&h=200&w=280"
      },
      "liked": false
    },
    {
      "id": 39317,
      "width": 5184,
      "height": 3456,
      "url": "https://www.pexels.com/photo/short-coated-black-and-brown-puppy-in-white-and-red-polka-dot-ceramic-mug-on-green-field-39317/",
      "photographer": "Pixabay",
      "photographer_url": "https://www.pexels.com/@pixabay",
      "photographer_id": 2659,
      "avg_color": "#94906D",
      "src": {
        "original": "https://images.pexels.com/photos/39317/chihuahua-dog-puppy-cute-39317.jpeg",
        "large2x": "https://images.pexels.com/photos/39317/chihuahua-dog-puppy-cute-39317.jpeg?auto=compress&cs=tinysrgb&dpr=2&h=650&w=940",
        "large": "https://images.pexels.com/photos/39317/chihuahua-dog-puppy-cute-39317.jpeg?auto=compress&cs=tinysrgb&h=650&w=940",
        "medium": "https://images.pexels.com/photos/39317/chihuahua-dog-puppy-cute-39317.jpeg?auto=compress&cs=tinysrgb&h=350",
        "small": "https://images.pexels.com/photos/39317/chihuahua-dog-puppy-cute-39317.jpeg?auto=compress&cs=tinysrgb&h=130",
        "portrait": "https://images.pexels.com/photos/39317/chihuahua-dog-puppy-cute-39317.jpeg?auto=compress&cs=tinysrgb&fit=crop&h=1200&w=800",
        "landscape": "https://images.pexels.com/photos/39317/chihuahua-dog-puppy-cute-39317.jpeg?auto=compress&cs=tinysrgb&fit=crop&h=627&w=1200",
        "tiny": "https://images.pexels.com/photos/39317/chihuahua-dog-puppy-cute-39317.jpeg?auto=compress&cs=tinysrgb&dpr=1&fit=crop&h=200&w=280"
      },
      "liked": false
    },
    {
      "id": 257558,
      "width": 2360,
      "height": 2000,
      "url": "https://www.pexels.com/photo/close-up-portrait-of-a-antelope-257558/",
      "photographer": "Pixabay",
      "photographer_url": "https://www.pexels.com/@pixabay",
      "photographer_id": 2659,
      "avg_color": "#715947",
      "src": {
        "original": "https://images.pexels.com/photos/257558/pexels-photo-257558.jpeg",
        "large2x": "https://images.pexels.com/photos/257558/pexels-photo-257558.jpeg?auto=compress&cs=tinysrgb&dpr=2&h=650&w=940",
        "large": "https://images.pexels.com/photos/257558/pexels-photo-257558.jpeg?auto=compress&cs=tinysrgb&h=650&w=940",
        "medium": "https://images.pexels.com/photos/257558/pexels-photo-257558.jpeg?auto=compress&cs=tinysrgb&h=350",
        "small": "https://images.pexels.com/photos/257558/pexels-photo-257558.jpeg?auto=compress&cs=tinysrgb&h=130",
        "portrait": "https://images.pexels.com/photos/257558/pexels-photo-257558.jpeg?auto=compress&cs=tinysrgb&fit=crop&h=1200&w=800",
        "landscape": "https://images.pexels.com/photos/257558/pexels-photo-257558.jpeg?auto=compress&cs=tinysrgb&fit=crop&h=627&w=1200",
        "tiny": "https://images.pexels.com/photos/257558/pexels-photo-257558.jpeg?auto=compress&cs=tinysrgb&dpr=1&fit=crop&h=200&w=280"
      },
      "liked": false
    }
  ],
  "total_results": 8000,
  "next_page": "https://api.pexels.com/v1/search/?page=2&per_page=15&query=animal"
}
